Warning: Permanently added '10.128.0.63' (ECDSA) to the list of known hosts.
Warning: Permanently added '10.128.0.65' (ECDSA) to the list of known hosts.
Warning: Permanently added '10.128.0.94' (ECDSA) to the list of known hosts.
Warning: Permanently added '10.128.0.14' (ECDSA) to the list of known hosts.
Warning: Permanently added '10.128.0.86' (ECDSA) to the list of known hosts.
Warning: Permanently added '10.128.0.84' (ECDSA) to the list of known hosts.
Warning: Permanently added '10.128.0.98' (ECDSA) to the list of known hosts.
Warning: Permanently added '10.128.0.96' (ECDSA) to the list of known hosts.
Warning: Permanently added '10.128.0.102' (ECDSA) to the list of known hosts.
Warning: Permanently added '10.128.0.97' (ECDSA) to the list of known hosts.
Warning: Permanently added '10.128.0.99' (ECDSA) to the list of known hosts.
Warning: Permanently added '10.128.0.101' (ECDSA) to the list of known hosts.
Warning: Permanently added '10.128.0.95' (ECDSA) to the list of known hosts.
Warning: Permanently added '10.128.0.100' (ECDSA) to the list of known hosts.
Warning: Permanently added '10.128.0.103' (ECDSA) to the list of known hosts.
